%YAML 1.1
%TAG !u! tag:unity3d.com,2011:
--- !u!114 &11400000
MonoBehaviour:
  m_ObjectHideFlags: 0
  m_PrefabParentObject: {fileID: 0}
  m_PrefabInternal: {fileID: 0}
  m_GameObject: {fileID: 0}
  m_Enabled: 1
  m_EditorHideFlags: 0
  m_Script: {fileID: 11500000, guid: 4bc4b79275b93284a88cc2f8563626af, type: 3}
  m_Name: Greg
  m_EditorClassIdentifier: 
  stats:
    Name: Greg
    HP: 50
    Defense: 25
  abilities:
  - {fileID: 11400000, guid: 97ed9f0c8d4337f41ad979ca1beb9f09, type: 2}
  - {fileID: 11400000, guid: b9995b3743b6d8947bb8046dbafb9328, type: 2}
