%YAML 1.1
%TAG !u! tag:unity3d.com,2011:
--- !u!114 &11400000
MonoBehaviour:
  m_ObjectHideFlags: 0
  m_PrefabParentObject: {fileID: 0}
  m_PrefabInternal: {fileID: 0}
  m_GameObject: {fileID: 0}
  m_Enabled: 1
  m_EditorHideFlags: 0
  m_Script: {fileID: 11500000, guid: 2dd72ac9119f0fe4ab336ca0ba340253, type: 3}
  m_Name: BattleConfigSO
  m_EditorClassIdentifier: 
  playerPos: {x: 0, y: 0, z: 0}
  EnemyPos: {x: 0, y: 0, z: 0}
  player: {fileID: 0}
  enemy: {fileID: 0}
