%YAML 1.1
%TAG !u! tag:unity3d.com,2011:
--- !u!1045 &1
EditorBuildSettings:
  m_ObjectHideFlags: 0
  serializedVersion: 2
  m_Scenes:
  - enabled: 1
    path: Assets/Scenes/MainMenu.unity
    guid: cfa1db6e273c34f4d8e2307f30d15357
  - enabled: 1
    path: Assets/Scenes/Overworld.unity
    guid: 90120db6731ae9140bec1c1d023f18cc
  - enabled: 1
    path: Assets/Scenes/Battle.unity
    guid: a15178d74c37ad1449eb83a2576f5405
  m_configObjects: {}
